{
  "data": {
  	"colors":
  		[
  			{
  				"background":[99, 109, 80],
  				"cannon":[179, 245, 93],
  				"targetBack":[131, 220, 82],
  				"targetFront":[112, 246, 40],
  				"bullet":[230, 244, 8],
  				"borders":[255, 255, 0]	
  			},
  			{
  				"background":[214, 105, 8],
  				"cannon":[200, 164, 20],
  				"targetBack":[248, 183, 9],
  				"targetFront":[195, 146, 12],
  				"bullet":[252, 179, 5],
  				"borders":[255, 255, 0]	
  			},
			{
  				"background":[11, 116, 110],
  				"cannon":[12, 198, 174],
  				"targetBack":[43, 196, 187],
  				"targetFront":[165, 247, 237],
  				"bullet":[138, 249, 236],
  				"borders":[8, 249, 218]	
  			},
  			{
  				"background":[56, 158, 244],
  				"cannon":[7, 116, 192],
  				"targetBack":[4, 199, 241],
  				"targetFront":[7, 116, 192],
  				"bullet":[86, 249, 230],
  				"borders":[8, 249, 218]	
  			},
  			{
  				"background":[120, 17, 132],
  				"cannon":[199, 21, 220],
  				"targetBack":[218, 21, 241],
  				"targetFront":[246, 12, 149],
  				"bullet":[253, 9, 160],
  				"borders":[232, 110, 246]	
  			},
  			{
  				"background":[111, 156, 164],
  				"cannon":[222, 230, 175],
  				"targetBack":[204, 242, 226],
  				"targetFront":[107, 201, 161],
  				"bullet":[223, 255, 185],
  				"borders":[178, 231, 225]	
  			},
  			{
  				"background":[124, 34, 46],
  				"cannon":[251, 60, 60],
  				"targetBack":[255, 7, 7],
  				"targetFront":[251, 155, 155],
  				"bullet":[249, 4, 37],
  				"borders":[243, 32, 10]	
  			},
  			{
  				"background":[231, 246, 102],
  				"cannon":[170, 7, 130],
  				"targetBack":[211, 7, 255],
  				"targetFront":[245, 164, 235],
  				"bullet":[251, 8, 225],
  				"borders":[250, 134, 246]	
  			},
  			{
  				"background":[94, 8, 251],
  				"cannon":[7, 160, 170],
  				"targetBack":[22, 217, 155],
  				"targetFront":[2, 156, 253],
  				"bullet":[8, 251, 191],
  				"borders":[9, 200, 180]	
  			},
  			{
  				"background":[0, 0, 0],
  				"cannon":[95, 7, 170],
  				"targetBack":[82, 22, 217],
  				"targetFront":[2, 156, 253],
  				"bullet":[0, 6, 255],
  				"borders":[142, 157, 14]	
  			},
  			{
  				"background":[187, 249, 228],
  				"cannon":[241, 251, 132],
  				"targetBack":[255, 181, 181],
  				"targetFront":[250, 222, 167],
  				"bullet":[251, 178, 242],
  				"borders":[180, 172, 255]	
  			},
  			{
  				"background":[196, 11, 224],
  				"cannon":[108, 0, 255],
  				"targetBack":[0, 0, 0],
  				"targetFront":[143, 3, 213],
  				"bullet":[0, 0, 0],
  				"borders":[101, 3, 146]	
  			},
  			{
  				"background":[51, 224, 11],
  				"cannon":[246, 255, 0],
  				"targetBack":[176, 118, 247],
  				"targetFront":[6, 83, 11],
  				"bullet":[5, 186, 202],
  				"borders":[243, 117, 92]	
  			},
  			{
  				"background":[8, 2, 85],
  				"cannon":[255, 3, 3],
  				"targetBack":[186, 0, 255],
  				"targetFront":[255, 0, 48],
  				"bullet":[255, 0, 156],
  				"borders":[255, 102, 0]	
  			},
  			{
  				"background":[60, 0, 255],
  				"cannon":[205, 255, 3],
  				"targetBack":[255, 255, 240],
  				"targetFront":[124, 170, 0],
  				"bullet":[0, 180, 255],
  				"borders":[96, 255, 0]	
  			},
  			{
  				"background":[236, 234, 217],
  				"cannon":[46, 6, 6],
  				"targetBack":[68, 3, 3],
  				"targetFront":[107, 7, 7],
  				"bullet":[255, 174, 0],
  				"borders":[68, 31, 6]	
  			},
  			{
  				"background":[244, 238, 210],
  				"cannon":[248, 157, 105],
  				"targetBack":[255, 84, 0],
  				"targetFront":[244, 159, 109],
  				"bullet":[250, 91, 4],
  				"borders":[255, 84, 0]	
  			},
  			{
  				"background":[105, 149, 76],
  				"cannon":[135, 195, 95],
  				"targetBack":[116, 193, 66],
  				"targetFront":[102, 250, 4],
  				"bullet":[153, 252, 88],
  				"borders":[94, 203, 21]	
  			},
  			{
  				"background":[76, 126, 149],
  				"cannon":[135, 195, 95],
  				"targetBack":[116, 193, 66],
  				"targetFront":[100, 229, 244],
  				"bullet":[102, 250, 4],
  				"borders":[12, 171, 244]	
  			},
  			{
  				"background":[76, 98, 149],
  				"cannon":[113, 149, 232],
  				"targetBack":[118, 98, 236],
  				"targetFront":[202, 156, 242],
  				"bullet":[171, 113, 250],
  				"borders":[121, 118, 240]	
  			},
  			{
  				"background":[127, 140, 221],
  				"cannon":[180, 159, 247],
  				"targetBack":[121, 174, 219],
  				"targetFront":[179, 137, 236],
  				"bullet":[171, 113, 250],
  				"borders":[106, 197, 208]	
  			},
  			{
  				"background":[93, 48, 50],
  				"cannon":[179, 54, 54],
  				"targetBack":[246, 64, 68],
  				"targetFront":[250, 117, 117],
  				"bullet":[250, 11, 11],
  				"borders":[249, 17, 22]	
  			},
  			{
  				"background":[93, 71, 48],
  				"cannon":[70, 44, 8],
  				"targetBack":[157, 100, 40],
  				"targetFront":[167, 144, 88],
  				"bullet":[246, 191, 133],
  				"borders":[220, 127, 29]	
  			},
  			{
  				"background":[242, 140, 19],
  				"cannon":[134, 71, 4],
  				"targetBack":[157, 100, 40],
  				"targetFront":[240, 187, 24],
  				"bullet":[247, 205, 10],
  				"borders":[227, 240, 17]	
  			},
  			{
  				"background":[50, 31, 9],
  				"cannon":[134, 71, 4],
  				"targetBack":[157, 100, 40],
  				"targetFront":[179, 170, 34],
  				"bullet":[247, 205, 10],
  				"borders":[103, 107, 37]	
  			},
  			{
  				"background":[59, 22, 101],
  				"cannon":[139, 111, 16],
  				"targetBack":[165, 133, 65],
  				"targetFront":[128, 30, 240],
  				"bullet":[201, 170, 27],
  				"borders":[152, 159, 32]	
  			}
  		]
  	
  }
}